<?xml version="1.0" encoding="UTF-8"?>
<svg xmlns="http://www.w3.org/2000/svg" xmlns:xlink="http://www.w3.org/1999/xlink" width="232.338" height="189.792" viewBox="0 0 232.338 189.792">
<defs>
<g>
<g id="glyph-0-0">
</g>
<g id="glyph-0-1">
<path d="M 4.578125 -3.1875 C 4.578125 -3.96875 4.515625 -4.765625 4.171875 -5.5 C 3.71875 -6.453125 2.90625 -6.625 2.484375 -6.625 C 1.890625 -6.625 1.15625 -6.359375 0.75 -5.4375 C 0.4375 -4.75 0.390625 -3.96875 0.390625 -3.1875 C 0.390625 -2.4375 0.421875 -1.546875 0.828125 -0.78125 C 1.265625 0.015625 1.984375 0.21875 2.46875 0.21875 C 3.015625 0.21875 3.765625 0.015625 4.203125 -0.9375 C 4.515625 -1.625 4.578125 -2.390625 4.578125 -3.1875 Z M 2.46875 0 C 2.09375 0 1.5 -0.25 1.328125 -1.203125 C 1.21875 -1.796875 1.21875 -2.71875 1.21875 -3.296875 C 1.21875 -3.9375 1.21875 -4.59375 1.296875 -5.125 C 1.484375 -6.3125 2.21875 -6.40625 2.46875 -6.40625 C 2.796875 -6.40625 3.453125 -6.21875 3.640625 -5.234375 C 3.75 -4.6875 3.75 -3.921875 3.75 -3.296875 C 3.75 -2.546875 3.75 -1.875 3.640625 -1.25 C 3.484375 -0.296875 2.921875 0 2.46875 0 Z M 2.46875 0 "/>
</g>
<g id="glyph-0-2">
<path d="M 4.46875 -2 C 4.46875 -3.1875 3.640625 -4.171875 2.578125 -4.171875 C 2.09375 -4.171875 1.671875 -4.015625 1.3125 -3.671875 L 1.3125 -5.609375 C 1.515625 -5.546875 1.84375 -5.46875 2.15625 -5.46875 C 3.375 -5.46875 4.078125 -6.375 4.078125 -6.515625 C 4.078125 -6.5625 4.046875 -6.625 3.96875 -6.625 C 3.96875 -6.625 3.9375 -6.625 3.890625 -6.59375 C 3.703125 -6.5 3.203125 -6.296875 2.546875 -6.296875 C 2.140625 -6.296875 1.6875 -6.375 1.21875 -6.578125 C 1.140625 -6.609375 1.125 -6.609375 1.109375 -6.609375 C 1 -6.609375 1 -6.53125 1 -6.375 L 1 -3.421875 C 1 -3.25 1 -3.171875 1.140625 -3.171875 C 1.21875 -3.171875 1.234375 -3.203125 1.265625 -3.265625 C 1.375 -3.421875 1.75 -3.953125 2.546875 -3.953125 C 3.078125 -3.953125 3.3125 -3.5 3.40625 -3.3125 C 3.5625 -2.953125 3.578125 -2.5625 3.578125 -2.0625 C 3.578125 -1.71875 3.578125 -1.125 3.34375 -0.703125 C 3.09375 -0.3125 2.734375 -0.0625 2.28125 -0.0625 C 1.546875 -0.0625 0.984375 -0.59375 0.8125 -1.171875 C 0.84375 -1.15625 0.875 -1.15625 0.984375 -1.15625 C 1.3125 -1.15625 1.484375 -1.40625 1.484375 -1.640625 C 1.484375 -1.875 1.3125 -2.125 0.984375 -2.125 C 0.84375 -2.125 0.5 -2.0625 0.5 -1.59375 C 0.5 -0.75 1.1875 0.21875 2.296875 0.21875 C 3.453125 0.21875 4.46875 -0.734375 4.46875 -2 Z M 4.46875 -2 "/>
</g>
<g id="glyph-0-3">
<path d="M 2.921875 -6.359375 C 2.921875 -6.59375 2.921875 -6.625 2.6875 -6.625 C 2.078125 -5.984375 1.203125 -5.984375 0.890625 -5.984375 L 0.890625 -5.671875 C 1.078125 -5.671875 1.671875 -5.671875 2.1875 -5.9375 L 2.1875 -0.78125 C 2.1875 -0.421875 2.15625 -0.3125 1.265625 -0.3125 L 0.9375 -0.3125 L 0.9375 0 C 1.296875 -0.03125 2.15625 -0.03125 2.546875 -0.03125 C 2.953125 -0.03125 3.8125 -0.03125 4.15625 0 L 4.15625 -0.3125 L 3.84375 -0.3125 C 2.953125 -0.3125 2.921875 -0.421875 2.921875 -0.78125 Z M 2.921875 -6.359375 "/>
</g>
<g id="glyph-1-0">
</g>
<g id="glyph-1-1">
<path d="M 1.90625 -0.53125 C 1.90625 -0.8125 1.671875 -1.046875 1.375 -1.046875 C 1.09375 -1.046875 0.859375 -0.8125 0.859375 -0.53125 C 0.859375 -0.234375 1.09375 0 1.375 0 C 1.671875 0 1.90625 -0.234375 1.90625 -0.53125 Z M 1.90625 -0.53125 "/>
</g>
<g id="glyph-1-2">
<path d="M 3.015625 -3.234375 L 3.96875 -3.234375 C 4.71875 -3.234375 4.796875 -3.078125 4.796875 -2.78125 C 4.796875 -2.71875 4.796875 -2.59375 4.734375 -2.296875 C 4.703125 -2.25 4.703125 -2.203125 4.703125 -2.1875 C 4.703125 -2.109375 4.765625 -2.0625 4.8125 -2.0625 C 4.921875 -2.0625 4.921875 -2.09375 4.96875 -2.28125 L 5.515625 -4.4375 C 5.546875 -4.546875 5.546875 -4.5625 5.546875 -4.59375 C 5.546875 -4.609375 5.53125 -4.703125 5.421875 -4.703125 C 5.328125 -4.703125 5.3125 -4.65625 5.28125 -4.484375 C 5.0625 -3.71875 4.84375 -3.53125 4 -3.53125 L 3.09375 -3.53125 L 3.734375 -6.0625 C 3.8125 -6.40625 3.828125 -6.453125 4.265625 -6.453125 L 5.578125 -6.453125 C 6.796875 -6.453125 7.03125 -6.125 7.03125 -5.359375 C 7.03125 -5.125 7.03125 -5.09375 7 -4.8125 C 6.96875 -4.6875 6.96875 -4.671875 6.96875 -4.640625 C 6.96875 -4.59375 7 -4.515625 7.09375 -4.515625 C 7.203125 -4.515625 7.21875 -4.578125 7.234375 -4.765625 L 7.4375 -6.484375 C 7.46875 -6.75 7.40625 -6.75 7.171875 -6.75 L 2.296875 -6.75 C 2.09375 -6.75 2 -6.75 2 -6.5625 C 2 -6.453125 2.09375 -6.453125 2.28125 -6.453125 C 2.640625 -6.453125 2.921875 -6.453125 2.921875 -6.265625 C 2.921875 -6.234375 2.921875 -6.21875 2.875 -6.03125 L 1.5625 -0.78125 C 1.453125 -0.390625 1.4375 -0.3125 0.65625 -0.3125 C 0.484375 -0.3125 0.375 -0.3125 0.375 -0.125 C 0.375 0 0.5 0 0.53125 0 C 0.8125 0 1.546875 -0.03125 1.84375 -0.03125 C 2.171875 -0.03125 2.984375 0 3.3125 0 C 3.40625 0 3.53125 0 3.53125 -0.1875 C 3.53125 -0.265625 3.46875 -0.28125 3.46875 -0.296875 C 3.4375 -0.3125 3.421875 -0.3125 3.1875 -0.3125 C 2.96875 -0.3125 2.921875 -0.3125 2.671875 -0.328125 C 2.390625 -0.359375 2.359375 -0.390625 2.359375 -0.53125 C 2.359375 -0.546875 2.359375 -0.609375 2.390625 -0.75 Z M 3.015625 -3.234375 "/>
</g>
<g id="glyph-2-0">
</g>
<g id="glyph-2-1">
<path d="M -5.640625 -9.109375 C -6.078125 -9.359375 -6.421875 -9.59375 -6.484375 -10.21875 C -6.484375 -10.3125 -6.484375 -10.421875 -6.671875 -10.421875 C -6.71875 -10.421875 -6.78125 -10.375 -6.78125 -10.296875 C -6.78125 -10.0625 -6.75 -9.78125 -6.75 -9.53125 C -6.75 -9.1875 -6.78125 -8.828125 -6.78125 -8.5 C -6.78125 -8.4375 -6.78125 -8.3125 -6.59375 -8.3125 C -6.484375 -8.3125 -6.484375 -8.390625 -6.484375 -8.453125 C -6.46875 -8.703125 -6.390625 -9.046875 -6.09375 -9.046875 C -5.984375 -9.046875 -5.90625 -9 -5.765625 -8.90625 L -1.078125 -6.234375 L -6.015625 -5.859375 C -6.21875 -5.859375 -6.46875 -5.828125 -6.484375 -6.5625 C -6.484375 -6.734375 -6.484375 -6.828125 -6.671875 -6.828125 C -6.78125 -6.828125 -6.78125 -6.71875 -6.78125 -6.671875 C -6.78125 -6.28125 -6.75 -5.859375 -6.75 -5.46875 C -6.75 -5.234375 -6.78125 -4.65625 -6.78125 -4.421875 C -6.78125 -4.359375 -6.78125 -4.234375 -6.59375 -4.234375 C -6.484375 -4.234375 -6.484375 -4.328125 -6.484375 -4.46875 C -6.484375 -4.90625 -6.421875 -4.984375 -6.234375 -5 L -5.46875 -5.0625 L -1.078125 -2.546875 L -6.125 -2.171875 C -6.234375 -2.171875 -6.46875 -2.171875 -6.484375 -2.921875 C -6.484375 -3.015625 -6.484375 -3.125 -6.671875 -3.125 C -6.78125 -3.125 -6.78125 -3.015625 -6.78125 -2.984375 C -6.78125 -2.59375 -6.75 -2.171875 -6.75 -1.765625 C -6.75 -1.421875 -6.78125 -1.0625 -6.78125 -0.71875 C -6.78125 -0.671875 -6.78125 -0.546875 -6.59375 -0.546875 C -6.484375 -0.546875 -6.484375 -0.640625 -6.484375 -0.796875 C -6.484375 -1.296875 -6.390625 -1.296875 -6.109375 -1.328125 L -0.046875 -1.765625 C 0.140625 -1.78125 0.21875 -1.78125 0.21875 -1.921875 C 0.21875 -2.046875 0.15625 -2.078125 0.015625 -2.171875 L -5.0625 -5.09375 L -0.046875 -5.453125 C 0.171875 -5.46875 0.21875 -5.5 0.21875 -5.609375 C 0.21875 -5.75 0.125 -5.796875 0.03125 -5.859375 Z M -5.640625 -9.109375 "/>
</g>
<g id="glyph-2-2">
<path d="M -3.234375 -3.015625 L -3.234375 -3.96875 C -3.234375 -4.71875 -3.078125 -4.796875 -2.78125 -4.796875 C -2.71875 -4.796875 -2.59375 -4.796875 -2.296875 -4.734375 C -2.25 -4.703125 -2.203125 -4.703125 -2.1875 -4.703125 C -2.109375 -4.703125 -2.0625 -4.765625 -2.0625 -4.8125 C -2.0625 -4.921875 -2.09375 -4.921875 -2.28125 -4.96875 L -4.4375 -5.515625 C -4.546875 -5.546875 -4.5625 -5.546875 -4.59375 -5.546875 C -4.609375 -5.546875 -4.703125 -5.53125 -4.703125 -5.421875 C -4.703125 -5.328125 -4.65625 -5.3125 -4.484375 -5.28125 C -3.71875 -5.0625 -3.53125 -4.84375 -3.53125 -4 L -3.53125 -3.09375 L -6.0625 -3.734375 C -6.40625 -3.8125 -6.453125 -3.828125 -6.453125 -4.265625 L -6.453125 -5.578125 C -6.453125 -6.796875 -6.125 -7.03125 -5.359375 -7.03125 C -5.125 -7.03125 -5.09375 -7.03125 -4.8125 -7 C -4.6875 -6.96875 -4.671875 -6.96875 -4.640625 -6.96875 C -4.59375 -6.96875 -4.515625 -7 -4.515625 -7.09375 C -4.515625 -7.203125 -4.578125 -7.21875 -4.765625 -7.234375 L -6.484375 -7.4375 C -6.75 -7.46875 -6.75 -7.40625 -6.75 -7.171875 L -6.75 -2.296875 C -6.75 -2.09375 -6.75 -2 -6.5625 -2 C -6.453125 -2 -6.453125 -2.09375 -6.453125 -2.28125 C -6.453125 -2.640625 -6.453125 -2.921875 -6.265625 -2.921875 C -6.234375 -2.921875 -6.21875 -2.921875 -6.03125 -2.875 L -0.78125 -1.5625 C -0.390625 -1.453125 -0.3125 -1.4375 -0.3125 -0.65625 C -0.3125 -0.484375 -0.3125 -0.375 -0.125 -0.375 C 0 -0.375 0 -0.5 0 -0.53125 C 0 -0.8125 -0.03125 -1.546875 -0.03125 -1.84375 C -0.03125 -2.171875 0 -2.984375 0 -3.3125 C 0 -3.40625 0 -3.53125 -0.1875 -3.53125 C -0.265625 -3.53125 -0.28125 -3.46875 -0.296875 -3.46875 C -0.3125 -3.4375 -0.3125 -3.421875 -0.3125 -3.1875 C -0.3125 -2.96875 -0.3125 -2.921875 -0.328125 -2.671875 C -0.359375 -2.390625 -0.390625 -2.359375 -0.53125 -2.359375 C -0.546875 -2.359375 -0.609375 -2.359375 -0.75 -2.390625 Z M -3.234375 -3.015625 "/>
</g>
<g id="glyph-3-0">
</g>
<g id="glyph-3-1">
<path d="M 2.390625 -3.296875 C 2.359375 -3.296875 2.328125 -3.296875 2.171875 -3.125 C 0.921875 -1.875 -0.96875 -1.5625 -2.484375 -1.5625 C -4.21875 -1.5625 -5.9375 -1.9375 -7.1875 -3.15625 C -7.296875 -3.296875 -7.328125 -3.296875 -7.359375 -3.296875 C -7.421875 -3.296875 -7.453125 -3.25 -7.453125 -3.1875 C -7.453125 -3.09375 -6.78125 -2.203125 -5.515625 -1.609375 C -4.421875 -1.109375 -3.3125 -0.984375 -2.484375 -0.984375 C -1.703125 -0.984375 -0.5 -1.09375 0.609375 -1.640625 C 1.84375 -2.234375 2.484375 -3.09375 2.484375 -3.1875 C 2.484375 -3.25 2.453125 -3.296875 2.390625 -3.296875 Z M 2.390625 -3.296875 "/>
</g>
<g id="glyph-3-2">
<path d="M -2.484375 -2.875 C -3.265625 -2.875 -4.46875 -2.765625 -5.578125 -2.21875 C -6.8125 -1.625 -7.453125 -0.765625 -7.453125 -0.671875 C -7.453125 -0.609375 -7.40625 -0.5625 -7.359375 -0.5625 C -7.328125 -0.5625 -7.296875 -0.5625 -7.125 -0.75 C -6.140625 -1.734375 -4.5625 -2.296875 -2.484375 -2.296875 C -0.78125 -2.296875 0.96875 -1.921875 2.21875 -0.703125 C 2.328125 -0.5625 2.359375 -0.5625 2.390625 -0.5625 C 2.4375 -0.5625 2.484375 -0.609375 2.484375 -0.671875 C 2.484375 -0.765625 1.8125 -1.65625 0.546875 -2.25 C -0.546875 -2.75 -1.65625 -2.875 -2.484375 -2.875 Z M -2.484375 -2.875 "/>
</g>
</g>
<clipPath id="clip-0">
<path clip-rule="nonzero" d="M 36 0.164062 L 231.679688 0.164062 L 231.679688 163 L 36 163 Z M 36 0.164062 "/>
</clipPath>
<clipPath id="clip-1">
<path clip-rule="nonzero" d="M 52 0.164062 L 189 0.164062 L 189 163 L 52 163 Z M 52 0.164062 "/>
</clipPath>
<clipPath id="clip-2">
<path clip-rule="nonzero" d="M 36 43 L 231.679688 43 L 231.679688 150 L 36 150 Z M 36 43 "/>
</clipPath>
<clipPath id="clip-3">
<path clip-rule="nonzero" d="M 52 0.164062 L 189 0.164062 L 189 163 L 52 163 Z M 52 0.164062 "/>
</clipPath>
<clipPath id="clip-4">
<path clip-rule="nonzero" d="M 36 44 L 231.679688 44 L 231.679688 150 L 36 150 Z M 36 44 "/>
</clipPath>
<clipPath id="clip-5">
<path clip-rule="nonzero" d="M 36 0.164062 L 231.679688 0.164062 L 231.679688 163 L 36 163 Z M 36 0.164062 "/>
</clipPath>
<clipPath id="clip-6">
<path clip-rule="nonzero" d="M 36.269531 0.363281 L 231.480469 0.363281 L 231.480469 162.585938 L 36.269531 162.585938 Z M 36.269531 0.363281 "/>
</clipPath>
</defs>
<g clip-path="url(#clip-0)">
<path fill-rule="nonzero" fill="rgb(25%, 25%, 25%)" fill-opacity="1" d="M 36.269531 162.585938 L 231.480469 162.585938 L 231.480469 0.363281 L 36.269531 0.363281 Z M 36.269531 162.585938 "/>
</g>
<g clip-path="url(#clip-1)">
<path fill="none" stroke-width="0.3985" stroke-linecap="butt" stroke-linejoin="miter" stroke="rgb(100%, 100%, 100%)" stroke-opacity="1" stroke-miterlimit="10" d="M -0.0893378 -13.556806 L -0.0893378 149.128071 M 45.250419 -13.556806 L 45.250419 149.128071 M 90.590176 -13.556806 L 90.590176 149.128071 M 135.93385 -13.556806 L 135.93385 149.128071 " transform="matrix(0.997159, 0, 0, -0.997159, 52.538303, 149.067649)"/>
</g>
<g clip-path="url(#clip-2)">
<path fill="none" stroke-width="0.3985" stroke-linecap="butt" stroke-linejoin="miter" stroke="rgb(100%, 100%, 100%)" stroke-opacity="1" stroke-miterlimit="10" d="M -16.315126 0.00124617 L 179.452025 0.00124617 M -16.315126 52.62733 L 179.452025 52.62733 M -16.315126 105.253414 L 179.452025 105.253414 " transform="matrix(0.997159, 0, 0, -0.997159, 52.538303, 149.067649)"/>
</g>
<g clip-path="url(#clip-3)">
<path fill="none" stroke-width="0.19925" stroke-linecap="butt" stroke-linejoin="miter" stroke="rgb(50%, 50%, 50%)" stroke-opacity="1" stroke-miterlimit="10" d="M -0.0893378 -13.556806 L -0.0893378 -9.306449 M 45.250419 -13.556806 L 45.250419 -9.306449 M 90.590176 -13.556806 L 90.590176 -9.306449 M 135.93385 -13.556806 L 135.93385 -9.306449 M -0.0893378 149.128071 L -0.0893378 144.873796 M 45.250419 149.128071 L 45.250419 144.873796 M 90.590176 149.128071 L 90.590176 144.873796 M 135.93385 149.128071 L 135.93385 144.873796 " transform="matrix(0.997159, 0, 0, -0.997159, 52.538303, 149.067649)"/>
</g>
<g clip-path="url(#clip-4)">
<path fill="none" stroke-width="0.19925" stroke-linecap="butt" stroke-linejoin="miter" stroke="rgb(50%, 50%, 50%)" stroke-opacity="1" stroke-miterlimit="10" d="M -16.315126 0.00124617 L -12.064769 0.00124617 M -16.315126 52.62733 L -12.064769 52.62733 M -16.315126 105.253414 L -12.064769 105.253414 M 179.452025 0.00124617 L 175.201668 0.00124617 M 179.452025 52.62733 L 175.201668 52.62733 M 179.452025 105.253414 L 175.201668 105.253414 " transform="matrix(0.997159, 0, 0, -0.997159, 52.538303, 149.067649)"/>
</g>
<g clip-path="url(#clip-5)">
<path fill="none" stroke-width="0.3985" stroke-linecap="butt" stroke-linejoin="miter" stroke="rgb(100%, 100%, 100%)" stroke-opacity="1" stroke-miterlimit="10" d="M -16.315126 -13.556806 L -16.315126 149.128071 L 179.452025 149.128071 L 179.452025 -13.556806 Z M -16.315126 -13.556806 " transform="matrix(0.997159, 0, 0, -0.997159, 52.538303, 149.067649)"/>
</g>
<g fill="rgb(100%, 100%, 100%)" fill-opacity="1">
<use xlink:href="#glyph-0-1" x="49.964636" y="172.497889"/>
</g>
<g fill="rgb(100%, 100%, 100%)" fill-opacity="1">
<use xlink:href="#glyph-0-2" x="95.175816" y="172.497889"/>
</g>
<g fill="rgb(100%, 100%, 100%)" fill-opacity="1">
<use xlink:href="#glyph-0-3" x="137.905067" y="172.497889"/>
<use xlink:href="#glyph-0-1" x="142.872235" y="172.497889"/>
</g>
<g fill="rgb(100%, 100%, 100%)" fill-opacity="1">
<use xlink:href="#glyph-0-3" x="183.116247" y="172.497889"/>
<use xlink:href="#glyph-0-2" x="188.083414" y="172.497889"/>
</g>
<g fill="rgb(100%, 100%, 100%)" fill-opacity="1">
<use xlink:href="#glyph-0-1" x="27.79281" y="152.268529"/>
</g>
<g fill="rgb(100%, 100%, 100%)" fill-opacity="1">
<use xlink:href="#glyph-0-1" x="20.065826" y="99.79205"/>
</g>
<g fill="rgb(100%, 100%, 100%)" fill-opacity="1">
<use xlink:href="#glyph-1-1" x="25.033672" y="99.79205"/>
</g>
<g fill="rgb(100%, 100%, 100%)" fill-opacity="1">
<use xlink:href="#glyph-0-2" x="27.79281" y="99.79205"/>
</g>
<g fill="rgb(100%, 100%, 100%)" fill-opacity="1">
<use xlink:href="#glyph-0-3" x="27.79281" y="47.316568"/>
</g>
<g clip-path="url(#clip-6)">
<path fill="none" stroke-width="1.59404" stroke-linecap="butt" stroke-linejoin="miter" stroke="rgb(9.020996%, 64.710999%, 53.729248%)" stroke-opacity="1" stroke-miterlimit="10" d="M 0.000761901 53.402971 L 0.0908616 52.176831 L 0.180961 51.107387 L 0.271061 50.096702 L 0.361161 49.125192 L 0.455178 48.173269 L 0.545278 47.240932 L 0.635377 46.316431 L 0.725477 45.407599 L 0.815577 44.502684 L 0.905677 43.609521 L 0.995776 42.724193 L 1.089794 41.842783 L 1.179893 40.969207 L 1.269993 40.099549 L 1.360093 39.237725 L 1.450193 38.383736 L 1.540292 37.533665 L 1.630392 36.691428 L 1.724409 35.853109 L 1.814509 35.022624 L 1.904609 34.199974 L 1.994708 33.385159 L 2.084808 32.574261 L 2.174908 31.767281 L 2.268925 30.972053 L 2.359025 30.18466 L 2.449124 29.401184 L 2.539224 28.625542 L 2.629324 27.857736 L 2.719424 27.097764 L 2.809523 26.349544 L 2.903541 25.605242 L 2.99364 24.868775 L 3.08374 24.14406 L 3.17384 23.427179 L 3.263939 22.718133 L 3.354039 22.016922 L 3.444139 21.323546 L 3.538156 20.641922 L 3.628256 19.97205 L 3.718356 19.310013 L 3.808455 18.65581 L 3.898555 18.01336 L 3.988655 17.378744 L 4.082672 16.755881 L 4.172772 16.140852 L 4.262871 15.537576 L 4.352971 14.946051 L 4.443071 14.366279 L 4.533171 13.794341 L 4.62327 13.234156 L 4.717288 12.685723 L 4.807387 12.145124 L 4.897487 11.620195 L 4.987587 11.103101 L 5.077686 10.597759 L 5.167786 10.104169 L 5.257886 9.622332 L 5.351903 9.152246 L 5.442003 8.693913 L 5.532103 8.243414 L 5.622202 7.808585 L 5.712302 7.385508 L 5.802402 6.974183 L 5.892502 6.57461 L 5.986519 6.182872 L 6.076618 5.806803 L 6.166718 5.442487 L 6.256818 5.089923 L 6.346918 4.749111 L 6.437017 4.420051 L 6.531034 4.102743 L 6.621134 3.801105 L 6.711234 3.507301 L 6.801334 3.22525 L 6.891433 2.958868 L 6.981533 2.700321 L 7.071633 2.457443 L 7.16565 2.222401 L 7.25575 2.003027 L 7.34585 1.791489 L 7.435949 1.59562 L 7.526049 1.411503 L 7.616149 1.235221 L 7.706248 1.074608 L 7.800266 0.925748 L 7.890365 0.784722 L 7.980465 0.659366 L 8.070565 0.541845 L 8.160665 0.439993 L 8.250764 0.345976 L 8.344781 0.263711 L 8.434881 0.193198 L 8.524981 0.134437 L 8.615081 0.0835111 L 8.70518 0.0482547 L 8.79528 0.0208331 L 8.88538 0.00516355 L 8.979397 0.00124617 L 9.069497 0.00516355 L 9.159596 0.0208331 L 9.249696 0.0482547 L 9.339796 0.0835111 L 9.429896 0.13052 L 9.519995 0.185363 L 9.614013 0.251958 L 9.704112 0.326389 L 9.794212 0.412571 L 9.884312 0.506588 L 9.974412 0.612357 L 10.064511 0.725961 L 10.154611 0.8474 L 10.248628 0.980591 L 10.338728 1.117699 L 10.428828 1.26656 L 10.518927 1.423255 L 10.609027 1.591702 L 10.699127 1.764067 L 10.793144 1.948184 L 10.883244 2.136218 L 10.973343 2.332087 L 11.063443 2.539708 L 11.153543 2.751247 L 11.243643 2.97062 L 11.333742 3.197828 L 11.42776 3.432871 L 11.517859 3.675749 L 11.607959 3.922544 L 11.698059 4.177173 L 11.788159 4.43572 L 11.878258 4.702102 L 11.968358 4.976319 L 12.062375 5.254453 L 12.152475 5.540422 L 12.242575 5.830308 L 12.332674 6.124111 L 12.422774 6.425749 L 12.512874 6.731305 L 12.602974 7.040778 L 12.696991 7.358086 L 12.78709 7.675394 L 12.87719 8.000536 L 12.96729 8.329596 L 13.05739 8.662573 L 13.147489 8.999468 L 13.241507 9.34028 L 13.331606 9.68501 L 13.421706 10.033657 L 13.601905 10.738785 L 13.692005 11.095267 L 13.782105 11.455665 L 13.876122 11.819982 L 14.146421 12.924683 L 14.236521 13.296834 L 14.416721 14.048971 L 14.510738 14.428957 L 14.690937 15.188929 L 14.871137 15.956735 L 14.961236 16.344556 L 15.055253 16.728459 L 15.415652 18.279742 L 15.505752 18.67148 L 15.595852 19.0593 L 15.689869 19.451038 L 15.870069 20.226679 L 15.960168 20.618417 L 16.230468 21.781879 L 16.324485 22.1697 L 16.414584 22.553603 L 16.504684 22.941424 L 16.684884 23.70923 L 16.774983 24.089216 L 16.869 24.469202 L 17.0492 25.229174 L 17.229399 25.981311 L 17.409599 26.725613 L 17.503616 27.097764 L 17.593716 27.465998 L 17.773915 28.194631 L 18.044214 29.275827 L 18.138232 29.628392 L 18.228331 29.984873 L 18.408531 30.682167 L 18.58873 31.371626 L 18.67883 31.712438 L 18.772847 32.049332 L 18.862947 32.386227 L 18.953047 32.719204 L 19.133246 33.377324 L 19.223346 33.702467 L 19.317363 34.023692 L 19.497562 34.658308 L 19.587662 34.971698 L 19.677762 35.281171 L 19.857961 35.892282 L 19.951979 36.193921 L 20.042078 36.491641 L 20.132178 36.785445 L 20.312378 37.365217 L 20.402477 37.651186 L 20.492577 37.933237 L 20.586594 38.211371 L 20.676694 38.489505 L 20.766794 38.763722 L 20.856893 39.034021 L 20.946993 39.300403 L 21.037093 39.562867 L 21.13111 39.821415 L 21.22121 40.079962 L 21.311309 40.334591 L 21.401409 40.585304 L 21.581609 41.078894 L 21.671708 41.317854 L 21.765726 41.556814 L 21.945925 42.0269 L 22.126125 42.481316 L 22.216224 42.704606 L 22.306324 42.92398 L 22.400341 43.139435 L 22.490441 43.354891 L 22.76074 43.977755 L 22.94094 44.377328 L 23.034957 44.573197 L 23.215156 44.9571 L 23.305256 45.141217 L 23.395356 45.329251 L 23.485455 45.50945 L 23.579473 45.685733 L 23.759672 46.038297 L 23.939871 46.375191 L 24.120071 46.704251 L 24.214088 46.860947 L 24.394288 47.174337 L 24.484387 47.327115 L 24.664587 47.624836 L 24.754687 47.765861 L 24.848704 47.910804 L 24.938803 48.05183 L 25.028903 48.188938 L 25.209103 48.45532 L 25.299202 48.584594 L 25.393219 48.713867 L 25.573419 48.96458 L 25.753618 49.207457 L 25.843718 49.324979 L 25.933818 49.438583 L 26.027835 49.552187 L 26.298134 49.881247 L 26.388234 49.987016 L 26.568434 50.19072 L 26.662451 50.292571 L 26.75255 50.390506 L 27.02285 50.672557 L 27.203049 50.852757 L 27.297066 50.942857 L 27.387166 51.029039 L 27.477266 51.111304 L 27.567365 51.197486 L 27.657465 51.275834 L 27.747565 51.358099 L 27.841582 51.436446 L 27.931682 51.514794 L 28.201981 51.738085 L 28.38218 51.87911 L 28.476198 51.949623 L 28.746497 52.14941 L 29.016796 52.337444 L 29.110813 52.400122 L 29.381112 52.576404 L 29.471212 52.631247 L 29.561312 52.690008 L 29.651412 52.744851 L 29.745429 52.795777 L 29.835528 52.850621 L 30.195927 53.054324 L 30.289945 53.101333 L 30.650344 53.289367 L 30.830543 53.37555 L 30.92456 53.418641 L 31.10476 53.504823 L 31.194859 53.543997 L 31.284959 53.587088 L 31.465159 53.665436 L 31.559176 53.70461 L 31.739375 53.782957 L 31.919575 53.85347 L 32.009674 53.892644 L 32.103692 53.9279 L 32.283891 53.998413 L 32.373991 54.029752 L 32.55419 54.100265 L 32.64429 54.131604 L 32.738307 54.162943 L 32.828407 54.198199 L 33.188806 54.323556 L 33.278906 54.350977 L 33.372923 54.382316 L 33.463022 54.413655 L 33.553122 54.441077 L 33.643222 54.472416 L 33.823421 54.527259 L 33.913521 54.558598 L 34.007538 54.58602 L 34.458037 54.723128 L 34.552054 54.75055 L 34.642154 54.774054 L 34.822353 54.828898 L 34.912453 54.852402 L 35.092653 54.907245 L 35.18667 54.930749 L 35.276769 54.954254 L 35.366869 54.981675 L 35.456969 55.00518 L 35.547069 55.032601 L 35.727268 55.07961 L 35.821285 55.107032 L 36.271784 55.224553 L 36.365801 55.251975 L 36.9064 55.393 L 37.000417 55.416505 L 37.360816 55.510522 L 37.450915 55.530109 L 37.541015 55.553613 L 37.635032 55.577117 L 38.085531 55.694639 L 38.175631 55.714225 L 38.269648 55.73773 L 38.630047 55.831747 L 38.720146 55.851334 L 38.814164 55.874838 L 39.174563 55.968855 L 39.264662 55.988442 L 39.354762 56.011946 L 39.448779 56.035451 L 39.809178 56.129468 L 39.899278 56.149055 L 39.989378 56.172559 L 40.083395 56.196063 L 40.533893 56.313585 L 40.627911 56.337089 L 40.71801 56.356676 L 41.168509 56.474197 L 41.262526 56.497701 L 41.803125 56.638727 L 41.897142 56.662231 L 42.34764 56.779753 L 42.441658 56.803257 L 42.531757 56.826761 L 42.621857 56.854183 L 42.982256 56.9482 L 43.076273 56.971704 L 43.166373 56.995209 L 43.256473 57.02263 L 43.526772 57.093143 L 43.616872 57.120565 L 43.710889 57.144069 L 43.891088 57.191078 L 43.981188 57.218499 L 44.161387 57.265508 L 44.251487 57.29293 L 44.345504 57.316434 L 44.435604 57.339938 L 44.525704 57.36736 L 44.705903 57.414368 L 44.796003 57.44179 L 44.89002 57.465294 L 44.98012 57.492716 L 45.160319 57.539725 L 45.250419 57.567146 L 45.340519 57.590651 L 45.430619 57.618072 L 45.524636 57.641576 L 45.614735 57.668998 L 45.704835 57.692502 L 45.794935 57.719924 L 45.885035 57.743428 L 46.065234 57.798272 L 46.159251 57.821776 L 46.249351 57.849198 L 46.339451 57.872702 L 46.51965 57.927545 L 46.60975 57.951049 L 46.69985 57.978471 L 46.793867 58.005893 L 46.883967 58.029397 L 47.154266 58.111662 L 47.244366 58.135166 L 47.338383 58.162588 L 47.608682 58.244853 L 47.698782 58.268357 L 47.878981 58.323201 L 47.972998 58.350622 L 48.333397 58.460309 L 48.423497 58.483813 L 48.513597 58.511235 L 48.607614 58.538657 L 49.058112 58.675765 L 49.15213 58.703186 L 49.242229 58.730608 L 49.332329 58.761947 L 49.692728 58.871634 L 49.786745 58.899055 L 49.966945 58.953899 L 50.057044 58.985238 L 50.327344 59.067503 L 50.421361 59.094924 L 50.51146 59.126264 L 50.69166 59.181107 L 50.78176 59.212446 L 50.961959 59.267289 L 51.055976 59.294711 L 51.146076 59.32605 L 51.236176 59.353472 L 51.326276 59.384811 L 51.506475 59.439654 L 51.600492 59.470993 L 51.690592 59.498415 L 51.780692 59.529754 L 51.870791 59.557175 L 51.960891 59.588514 L 52.050991 59.615936 L 52.141091 59.647275 L 52.235108 59.674697 L 52.325207 59.706036 L 52.415307 59.733457 L 52.505407 59.764796 L 52.595507 59.792218 L 52.685606 59.823557 L 52.775706 59.850979 L 52.869723 59.882318 L 52.959823 59.913657 L 53.049923 59.941079 L 53.230122 60.003757 L 53.320222 60.031178 L 53.414239 60.062517 L 53.504339 60.093856 L 53.594439 60.121278 L 53.864738 60.215295 L 53.954838 60.242717 L 54.048855 60.274056 L 54.319154 60.368073 L 54.409254 60.395495 L 54.589453 60.458173 L 54.68347 60.489512 L 55.224069 60.677546 L 55.318086 60.708885 L 55.768585 60.86558 L 55.862602 60.896919 L 56.3131 61.053615 L 56.4032 61.088871 L 56.497217 61.12021 L 56.857616 61.245566 L 56.947716 61.280823 L 57.037816 61.312162 L 57.131833 61.343501 L 57.221933 61.37484 L 57.312032 61.410096 L 57.492232 61.472774 L 57.582332 61.508031 L 57.676349 61.53937 L 57.766448 61.570709 L 57.856548 61.605965 L 57.946648 61.637304 L 58.036748 61.672561 L 58.216947 61.735239 L 58.310964 61.770495 L 58.401064 61.801834 L 58.491164 61.837091 L 58.581263 61.86843 L 58.671363 61.903686 L 58.761463 61.935025 L 58.851563 61.970281 L 58.94558 62.00162 L 59.03568 62.036877 L 59.125779 62.068216 L 59.305979 62.138729 L 59.396078 62.170068 L 59.486178 62.205324 L 59.580195 62.236663 L 59.760395 62.307176 L 59.850495 62.338515 L 60.030694 62.409028 L 60.124711 62.440367 L 60.39501 62.546136 L 60.48511 62.577475 L 60.66531 62.647988 L 60.759327 62.683245 L 60.849426 62.718501 L 60.939526 62.74984 L 61.299925 62.890866 L 61.393942 62.926122 L 61.844441 63.102404 L 61.938458 63.137661 L 62.479057 63.349199 L 62.573074 63.384456 L 63.023572 63.560738 L 63.113672 63.599912 L 63.207689 63.635168 L 63.477989 63.740937 L 63.568088 63.780111 L 63.748288 63.850624 L 63.842305 63.88588 L 63.932405 63.925054 L 64.112604 63.995567 L 64.202704 64.034741 L 64.292804 64.069997 L 64.386821 64.105254 L 64.47692 64.144427 L 64.65712 64.21494 L 64.74722 64.254114 L 64.837319 64.28937 L 64.927419 64.328544 L 65.021436 64.363801 L 65.111536 64.402974 L 65.201636 64.438231 L 65.291735 64.477405 L 65.381835 64.512661 L 65.471935 64.551835 L 65.562035 64.587091 L 65.656052 64.626265 L 65.746152 64.661522 L 65.836251 64.700695 L 65.926351 64.735952 L 66.106551 64.814299 L 66.200568 64.849556 L 66.380767 64.927903 L 66.470867 64.96316 L 66.651066 65.041507 L 66.741166 65.076764 L 66.835183 65.115938 L 67.015383 65.194285 L 67.105482 65.229542 L 67.375782 65.347063 L 67.469799 65.386237 L 67.559899 65.421493 L 68.010397 65.617362 L 68.104414 65.656536 L 68.464813 65.813231 L 68.554913 65.848488 L 68.64893 65.887662 L 68.73903 65.930753 L 69.189529 66.126622 L 69.283546 66.165795 L 69.643945 66.322491 L 69.734044 66.365582 L 69.824144 66.404756 L 69.918161 66.443929 L 70.098361 66.522277 L 70.188461 66.565368 L 70.36866 66.643716 L 70.462677 66.68289 L 70.552777 66.725981 L 70.732976 66.804328 L 70.823076 66.84742 L 71.003276 66.925767 L 71.097293 66.968858 L 71.277492 67.047206 L 71.367592 67.090297 L 71.457692 67.129471 L 71.547791 67.172562 L 71.637891 67.211736 L 71.731908 67.254827 L 71.822008 67.294001 L 71.912108 67.337092 L 72.002208 67.376266 L 72.092307 67.419357 L 72.182407 67.458531 L 72.272507 67.501622 L 72.366524 67.540796 L 72.456624 67.583887 L 72.546723 67.623061 L 72.726923 67.709243 L 72.817023 67.748417 L 72.91104 67.791508 L 73.001139 67.830682 L 73.271439 67.959956 L 73.361538 67.999129 L 73.451638 68.042221 L 73.545655 68.085312 L 73.635755 68.124486 L 73.996154 68.29685 L 74.086254 68.336024 L 74.180271 68.379115 L 74.63077 68.594571 L 74.724787 68.637662 L 74.814886 68.676836 L 75.265385 68.892292 L 75.359402 68.935383 L 75.719801 69.107748 L 75.809901 69.154756 L 75.900001 69.197848 L 75.994018 69.240939 L 76.444517 69.456395 L 76.534616 69.503403 L 76.628633 69.546494 L 76.808833 69.632677 L 76.898933 69.679685 L 77.079132 69.765868 L 77.173149 69.808959 L 77.263249 69.855968 L 77.443448 69.94215 L 77.533548 69.989158 L 77.713748 70.075341 L 77.807765 70.122349 L 77.987964 70.208532 L 78.078064 70.25554 L 78.168164 70.298631 L 78.258263 70.34564 L 78.348363 70.388731 L 78.44238 70.43574 L 78.53248 70.478831 L 78.62258 70.52584 L 78.71268 70.568931 L 78.802779 70.615939 L 78.892879 70.65903 L 78.986896 70.706039 L 79.076996 70.74913 L 79.257195 70.843147 L 79.347295 70.886238 L 79.437395 70.933247 L 79.527495 70.976338 L 79.621512 71.023347 L 79.711612 71.070355 L 79.801711 71.113447 L 80.07201 71.254472 L 80.16211 71.297563 L 80.256127 71.344572 L 80.436327 71.438589 L 80.526427 71.48168 L 80.796726 71.622706 L 80.890743 71.669714 L 80.980843 71.712806 L 81.341242 71.90084 L 81.435259 71.947848 L 81.975857 72.2299 L 82.069874 72.276908 L 82.610473 72.55896 L 82.70449 72.605968 L 82.79459 72.652977 L 82.884689 72.703903 L 83.154989 72.844929 L 83.249006 72.891937 L 83.339105 72.938946 L 83.429205 72.989872 L 83.699504 73.130897 L 83.789604 73.181823 L 83.883621 73.228832 L 83.973721 73.27584 L 84.063821 73.326766 L 84.24402 73.420783 L 84.33412 73.471709 L 84.42422 73.518718 L 84.518237 73.565726 L 84.608337 73.616652 L 84.698436 73.663661 L 84.788536 73.714587 L 84.968736 73.808604 L 85.058835 73.85953 L 85.152852 73.906539 L 85.242952 73.957464 L 85.333052 74.004473 L 85.423152 74.055399 L 85.513251 74.102408 L 85.603351 74.153333 L 85.697368 74.204259 L 85.787468 74.251268 L 85.877568 74.302194 L 85.967667 74.349202 L 86.147867 74.451054 L 86.237967 74.498063 L 86.331984 74.548989 L 86.422084 74.599915 L 86.512183 74.646923 L 86.692383 74.748775 L 86.782483 74.795784 L 86.872582 74.84671 L 86.966599 74.897636 L 87.056699 74.948562 L 87.146799 74.99557 L 87.417098 75.148348 L 87.511115 75.199274 L 87.601215 75.246282 L 88.051714 75.500912 L 88.145731 75.551838 L 88.686329 75.857394 L 88.780346 75.90832 L 89.320945 76.213875 L 89.414962 76.264801 L 89.595161 76.366653 L 89.685261 76.421497 L 89.865461 76.523348 L 89.959478 76.574274 L 90.049578 76.6252 L 90.139677 76.680044 L 90.409976 76.832821 L 90.500076 76.887665 L 90.594093 76.938591 L 90.684193 76.989517 L 90.774293 77.04436 L 90.954492 77.146212 L 91.044592 77.201055 L 91.134692 77.251981 L 91.228709 77.302907 L 91.318809 77.35775 L 91.408908 77.408676 L 91.499008 77.46352 L 91.589108 77.514446 L 91.679208 77.569289 L 91.773225 77.620215 L 91.863324 77.671141 L 91.953424 77.725984 L 92.043524 77.77691 L 92.223723 77.886597 L 92.313823 77.937523 L 92.40784 77.992366 L 92.49794 78.043292 L 92.58804 78.098135 L 92.67814 78.149061 L 92.858339 78.258748 L 92.948439 78.309674 L 93.042456 78.364517 L 93.132556 78.41936 L 93.222655 78.470286 L 93.402855 78.579973 L 93.492955 78.630899 L 93.583054 78.685742 L 93.677071 78.740586 L 93.857271 78.850272 L 93.947371 78.901198 L 94.12757 79.010885 L 94.221587 79.065728 L 94.311687 79.120571 L 94.401787 79.171497 L 94.762186 79.390871 L 94.856203 79.445714 L 95.396801 79.774774 L 95.490818 79.829617 L 95.941317 80.103834 L 96.035334 80.158677 L 96.125434 80.21352 L 96.215534 80.272281 L 96.575933 80.491654 L 96.66995 80.546498 L 96.76005 80.605258 L 97.030349 80.769788 L 97.120449 80.828549 L 97.210548 80.883392 L 97.304565 80.938236 L 97.394665 80.996996 L 97.574865 81.106683 L 97.664964 81.165444 L 97.845164 81.27513 L 97.939181 81.333891 L 98.029281 81.388734 L 98.11938 81.447495 L 98.29958 81.557182 L 98.38968 81.615942 L 98.483697 81.670786 L 98.573797 81.729547 L 98.663896 81.78439 L 98.753996 81.843151 L 98.844096 81.897994 L 98.934195 81.956755 L 99.024295 82.011598 L 99.118312 82.070359 L 99.208412 82.129119 L 99.298512 82.183963 L 99.388612 82.242723 L 99.478711 82.297567 L 99.658911 82.415088 L 99.752928 82.469931 L 99.933127 82.587453 L 100.023227 82.642296 L 100.203427 82.759817 L 100.297444 82.818578 L 100.387543 82.873421 L 100.747942 83.108464 L 100.838042 83.163308 L 100.932059 83.222068 L 101.472658 83.574633 L 101.566675 83.629476 L 102.107273 83.98204 L 102.20129 84.040801 L 102.38149 84.158322 L 102.47159 84.221 L 102.651789 84.338522 L 102.745806 84.397282 L 103.106205 84.632325 L 103.196305 84.695003 L 103.286405 84.753764 L 103.380422 84.812525 L 103.560621 84.930046 L 103.650721 84.992724 L 103.92102 85.169006 L 104.015037 85.231684 L 104.195237 85.349206 L 104.285337 85.411884 L 104.465536 85.529405 L 104.559553 85.592083 L 104.649653 85.650844 L 104.739753 85.713522 L 104.919952 85.831043 L 105.010052 85.893722 L 105.100152 85.952482 L 105.194169 86.01516 L 105.284269 86.073921 L 105.374368 86.136599 L 105.464468 86.19536 L 105.554568 86.258038 L 105.644668 86.316799 L 105.734767 86.379477 L 105.828784 86.442155 L 105.918884 86.500915 L 106.008984 86.563594 L 106.099084 86.622354 L 106.279283 86.74771 L 106.369383 86.806471 L 106.4634 86.869149 L 106.5535 86.931827 L 106.643599 86.990588 L 106.823799 87.115944 L 106.913899 87.174705 L 107.007916 87.237383 L 107.278215 87.425417 L 107.368315 87.484178 L 107.548514 87.609534 L 107.642531 87.672212 L 107.822731 87.797568 L 107.912831 87.856329 L 108.18313 88.044363 L 108.277147 88.107041 L 108.727646 88.420432 L 108.821663 88.48311 L 109.362261 88.859178 L 109.456278 88.921856 L 109.546378 88.988452 L 109.996877 89.301842 L 110.090894 89.368438 L 110.361193 89.556472 L 110.451293 89.623067 L 110.631492 89.748424 L 110.725509 89.811102 L 110.815609 89.877697 L 110.995809 90.003053 L 111.085908 90.069649 L 111.176008 90.132327 L 111.270025 90.195005 L 111.360125 90.2616 L 111.450225 90.324278 L 111.540325 90.390874 L 111.630424 90.453552 L 111.720524 90.520147 L 111.810624 90.582825 L 111.904641 90.649421 L 111.994741 90.712099 L 112.08484 90.778694 L 112.17494 90.841373 L 112.26504 90.907968 L 112.35514 90.970646 L 112.445239 91.037242 L 112.539256 91.09992 L 112.629356 91.166515 L 112.719456 91.229193 L 112.899655 91.362384 L 112.989755 91.425062 L 113.083772 91.491658 L 113.173872 91.558253 L 113.263972 91.620931 L 113.444171 91.754122 L 113.534271 91.8168 L 113.624371 91.883396 L 113.718388 91.949991 L 113.808488 92.016587 L 113.898587 92.079265 L 114.258986 92.345646 L 114.353003 92.408325 L 114.893602 92.807897 L 114.987619 92.874493 L 115.438118 93.20747 L 115.532135 93.274066 L 116.072733 93.673638 L 116.16675 93.740234 L 116.34695 93.873425 L 116.43705 93.943938 L 116.707349 94.143724 L 116.801366 94.210319 L 116.891466 94.280832 L 117.161765 94.480619 L 117.251865 94.551131 L 117.345882 94.617727 L 117.526081 94.750918 L 117.616181 94.821431 L 117.796381 94.954622 L 117.88648 95.025134 L 117.980497 95.09173 L 118.070597 95.162243 L 118.250797 95.295434 L 118.340896 95.365947 L 118.430996 95.432542 L 118.521096 95.503055 L 118.615113 95.56965 L 118.705213 95.640163 L 118.795312 95.706759 L 118.885412 95.777271 L 118.975512 95.843867 L 119.065612 95.91438 L 119.155711 95.980975 L 119.249729 96.051488 L 119.339828 96.122001 L 119.429928 96.188596 L 119.520028 96.259109 L 119.610127 96.325705 L 119.700227 96.396217 L 119.794244 96.46673 L 119.884344 96.533326 L 120.064544 96.674351 L 120.154643 96.740947 L 120.334843 96.881973 L 120.42886 96.952485 L 120.51896 97.019081 L 120.879359 97.301132 L 120.969458 97.367728 L 121.063475 97.438241 L 121.513974 97.790805 L 121.607991 97.861318 L 121.698091 97.927913 L 122.14859 98.280477 L 122.242607 98.35099 L 122.512906 98.562529 L 122.603006 98.636959 L 122.783205 98.777985 L 122.877222 98.848497 L 123.237621 99.130549 L 123.327721 99.204979 L 123.417821 99.275492 L 123.511838 99.346005 L 123.692038 99.48703 L 123.782137 99.561461 L 123.962337 99.702486 L 124.056354 99.776916 L 124.326653 99.988455 L 124.416753 100.062885 L 124.506853 100.133398 L 124.596952 100.207828 L 124.690969 100.278341 L 124.781069 100.348854 L 124.871169 100.423284 L 124.961269 100.493797 L 125.051368 100.568227 L 125.231568 100.709253 L 125.325585 100.783683 L 125.415685 100.854196 L 125.505784 100.928626 L 125.595884 100.999139 L 125.776084 101.147999 L 125.870101 101.218512 L 125.960201 101.292943 L 126.0503 101.363455 L 126.1404 101.437886 L 126.2305 101.508398 L 126.410699 101.657259 L 126.504716 101.727772 L 126.684916 101.876632 L 126.775016 101.947145 L 127.045315 102.170436 L 127.139332 102.240949 L 127.409631 102.464239 L 127.499731 102.534752 L 127.67993 102.683612 L 127.773948 102.758043 L 127.954147 102.906903 L 128.044247 102.977416 L 128.224446 103.126276 L 128.318463 103.200707 L 128.859062 103.647288 L 128.953079 103.721718 L 129.493677 104.1683 L 129.587695 104.246647 L 130.038193 104.618798 L 130.13221 104.693228 L 130.22231 104.771576 L 130.492609 104.994867 L 130.582709 105.073214 L 130.672809 105.147645 L 130.766826 105.222075 L 130.856926 105.296505 L 130.947025 105.374853 L 131.127225 105.523713 L 131.217325 105.602061 L 131.307424 105.676491 L 131.401441 105.754838 L 131.581641 105.903699 L 131.671741 105.982046 L 131.76184 106.056477 L 131.85194 106.134824 L 131.94204 106.209255 L 132.036057 106.287602 L 132.126157 106.362032 L 132.216257 106.44038 L 132.306356 106.51481 L 132.396456 106.593158 L 132.486556 106.667588 L 132.580573 106.745936 L 132.670673 106.820366 L 132.760772 106.898713 L 132.850872 106.973144 L 133.031072 107.129839 L 133.121171 107.204269 L 133.215188 107.282617 L 133.305288 107.360964 L 133.395388 107.435395 L 133.575587 107.59209 L 133.665687 107.66652 L 133.755787 107.744868 L 133.849804 107.823215 L 133.939904 107.901563 L 134.030004 107.975993 L 134.390402 108.289383 L 134.48442 108.363814 L 134.934918 108.755552 L 135.028935 108.833899 L 135.569534 109.303985 L 135.663551 109.382332 L 136.204149 109.852418 L 136.298167 109.930766 L 136.478366 110.087461 L 136.568466 110.169726 L 136.748665 110.326421 L 136.842682 110.404769 L 137.022882 110.561464 L 137.112982 110.643729 L 137.383281 110.878772 L 137.477298 110.961037 L 137.657497 111.117732 L 137.747597 111.199997 L 137.927797 111.356692 L 138.017896 111.438957 L 138.111914 111.517305 L 138.202013 111.59957 L 138.382213 111.756265 L 138.472313 111.83853 L 138.562412 111.916877 L 138.652512 111.999142 L 138.746529 112.07749 L 138.836629 112.159755 L 138.926729 112.238102 L 139.016828 112.320367 L 139.106928 112.398715 L 139.197028 112.48098 L 139.291045 112.559328 L 139.381145 112.641593 L 139.471244 112.71994 L 139.651444 112.88447 L 139.741544 112.962818 L 139.831643 113.045083 L 139.925661 113.127348 L 140.01576 113.205695 L 140.19596 113.370225 L 140.286059 113.448573 L 140.466259 113.613103 L 140.560276 113.69145 L 140.920675 114.02051 L 141.010775 114.098858 L 141.104792 114.181123 L 141.465191 114.510183 L 141.555291 114.588531 L 141.64539 114.670795 L 141.739407 114.75306 L 142.280006 115.24665 L 142.374023 115.328915 L 142.914622 115.822505 L 143.008639 115.908688 L 143.459137 116.320012 L 143.553154 116.406195 L 143.913553 116.735255 L 144.003653 116.821437 L 144.093753 116.903702 L 144.18777 116.985967 L 144.27787 117.072149 L 144.548169 117.318944 L 144.638269 117.405127 L 144.728368 117.487392 L 144.822386 117.573574 L 145.002585 117.738104 L 145.092685 117.824286 L 145.182785 117.906551 L 145.272884 117.992734 L 145.366901 118.074999 L 145.457001 118.161181 L 145.547101 118.243446 L 145.637201 118.329628 L 145.7273 118.411893 L 145.8174 118.498076 L 145.9075 118.580341 L 146.001517 118.666523 L 146.091617 118.748788 L 146.181716 118.83497 L 146.271816 118.917235 L 146.452016 119.0896 L 146.542115 119.171865 L 146.636133 119.258048 L 146.726232 119.34423 L 146.816332 119.426495 L 146.996532 119.59886 L 147.086631 119.681125 L 147.176731 119.767307 L 147.270748 119.853489 L 147.360848 119.939672 L 147.450948 120.021937 L 147.721247 120.280484 L 147.815264 120.366666 L 147.905364 120.448931 L 148.355862 120.879843 L 148.44988 120.966025 L 148.810279 121.310755 L 148.900378 121.39302 L 148.990478 121.479202 L 149.084495 121.565384 L 149.174595 121.655484 L 149.534994 122.000214 L 149.629011 122.086396 L 150.07951 122.517308 L 150.169609 122.607408 L 150.263627 122.69359 L 150.533926 122.952137 L 150.624025 123.042237 L 150.804225 123.214601 L 150.898242 123.304701 L 151.168541 123.563248 L 151.258641 123.653348 L 151.348741 123.73953 L 151.442758 123.82963 L 151.622957 124.001995 L 151.713057 124.092095 L 151.803157 124.178277 L 151.893257 124.268377 L 151.983356 124.354559 L 152.077373 124.440741 L 152.167473 124.530841 L 152.257573 124.617023 L 152.347673 124.707123 L 152.437772 124.793306 L 152.527872 124.883405 L 152.617972 124.969588 L 152.711989 125.059687 L 152.802089 125.149787 L 152.892189 125.23597 L 152.982288 125.326069 L 153.072388 125.412252 L 153.252588 125.592451 L 153.346605 125.678633 L 153.526804 125.858833 L 153.616904 125.945015 L 153.797103 126.125215 L 153.89112 126.211397 L 154.16142 126.481696 L 154.251519 126.567879 L 154.431719 126.748078 L 154.525736 126.838178 L 154.615836 126.928278 L 154.705936 127.01446 L 155.066334 127.374859 L 155.160352 127.464959 L 155.70095 128.005557 L 155.794967 128.095657 L 156.245466 128.546156 L 156.339483 128.636255 L 156.609782 128.906555 L 156.699882 129.000572 L 156.880081 129.180771 L 156.974099 129.270871 L 157.154298 129.45107 L 157.244398 129.545088 L 157.788914 130.089603 L 157.879013 130.183621 L 158.333429 130.638037 L 158.423529 130.732054 L 158.513629 130.822154 L 158.603729 130.916171 L 158.968045 131.280487 L 159.058145 131.374504 L 159.148245 131.464604 L 159.328444 131.652638 L 159.422461 131.742738 L 159.512561 131.836755 L 159.602661 131.926855 L 159.69276 132.020872 L 159.78286 132.110972 L 159.96306 132.299006 L 160.057077 132.389106 L 160.237276 132.57714 L 160.327376 132.66724 L 160.507575 132.855274 L 160.601593 132.945373 L 160.871892 133.227425 L 160.961991 133.317525 L 161.142191 133.505559 L 161.236208 133.599576 L 161.416408 133.78761 L 161.506507 133.87771 L 161.776807 134.159761 L 161.870824 134.253778 L 162.321322 134.723864 L 162.415339 134.817881 L 162.955938 135.381984 L 163.049955 135.476001 L 163.140055 135.570018 " transform="matrix(0.997159, 0, 0, -0.997159, 52.538303, 149.067649)"/>
</g>
<g fill="rgb(100%, 100%, 100%)" fill-opacity="1">
<use xlink:href="#glyph-1-2" x="129.990618" y="186.107112"/>
</g>
<g fill="rgb(100%, 100%, 100%)" fill-opacity="1">
<use xlink:href="#glyph-2-1" x="10.761338" y="94.603832"/>
</g>
<g fill="rgb(100%, 100%, 100%)" fill-opacity="1">
<use xlink:href="#glyph-3-1" x="10.761338" y="83.841498"/>
</g>
<g fill="rgb(100%, 100%, 100%)" fill-opacity="1">
<use xlink:href="#glyph-2-2" x="10.761338" y="79.977507"/>
</g>
<g fill="rgb(100%, 100%, 100%)" fill-opacity="1">
<use xlink:href="#glyph-3-2" x="10.761338" y="72.20964"/>
</g>
</svg>
